<?xml version="1.0" encoding="UTF-8" standalone="no"?>
<!-- Created with Inkscape (http://www.inkscape.org/) -->

<svg
   xmlns:dc="http://purl.org/dc/elements/1.1/"
   xmlns:cc="http://creativecommons.org/ns#"
   xmlns:rdf="http://www.w3.org/1999/02/22-rdf-syntax-ns#"
   xmlns:svg="http://www.w3.org/2000/svg"
   xmlns="http://www.w3.org/2000/svg"
   xmlns:sodipodi="http://sodipodi.sourceforge.net/DTD/sodipodi-0.dtd"
   xmlns:inkscape="http://www.inkscape.org/namespaces/inkscape"
   width="750"
   height="560"
   viewBox="0 0 198.43749 148.16667"
   version="1.1"
   id="svg31"
   inkscape:version="0.92.2 (5c3e80d, 2017-08-06)"
   sodipodi:docname="preview.svg"
   inkscape:export-filename="/home/tintou/Projects/zeitgeist-project.github.io/images/preview.png"
   inkscape:export-xdpi="96"
   inkscape:export-ydpi="96">
  <defs
     id="defs25" />
  <sodipodi:namedview
     id="base"
     pagecolor="#fdf6e3"
     bordercolor="#666666"
     borderopacity="1.0"
     inkscape:pageopacity="1"
     inkscape:pageshadow="2"
     inkscape:zoom="0.98994949"
     inkscape:cx="-417.22544"
     inkscape:cy="216.15883"
     inkscape:document-units="mm"
     inkscape:current-layer="layer1"
     showgrid="false"
     units="px"
     inkscape:window-width="3200"
     inkscape:window-height="1674"
     inkscape:window-x="0"
     inkscape:window-y="60"
     inkscape:window-maximized="1" />
  <metadata
     id="metadata28">
    <rdf:RDF>
      <cc:Work
         rdf:about="">
        <dc:format>image/svg+xml</dc:format>
        <dc:type
           rdf:resource="http://purl.org/dc/dcmitype/StillImage" />
        <dc:title></dc:title>
      </cc:Work>
    </rdf:RDF>
  </metadata>
  <g
     inkscape:label="Calque 1"
     inkscape:groupmode="layer"
     id="layer1"
     transform="translate(0,-148.83331)">
    <g
       id="g3159"
       transform="matrix(0.11273171,0,0,-0.11273171,9.7934186,267.69736)"
       inkscape:export-filename="/home/jfanaian/devel/.priv/zeitgeist/zeitgeist-html/img/logo.png"
       inkscape:export-xdpi="90"
       inkscape:export-ydpi="90">
      <g
         id="g3772">
        <g
           id="g3670">
          <ellipse
             ry="301.21057"
             rx="290.05463"
             cy="394.4223"
             cx="434.85059"
             style="fill:#298daf;fill-opacity:1"
             id="path2885"
             transform="matrix(0.85368774,0,0,0.85368774,-65.359425,96.756642)" />
          <path
             inkscape:connector-curvature="0"
             style="fill:#298daf;fill-opacity:1;stroke:none"
             d="m 109.81636,599.19321 c 0,0 31.3761,111.9081 1.04587,159.32088 -30.330233,47.41277 -60.688507,74.41925 21.26602,92.03656 85.22978,18.32138 169.80055,8.87357 243.68774,-14.64218 32.42674,-10.32031 106.94499,-45.79274 147.42768,-78.8594 53.95778,-44.07323 105.8662,-102.71331 134.69577,-162.9109 55.43112,-115.74296 -547.42583,5.40366 -548.12308,5.05504 z"
             id="path3659"
             transform="matrix(0.8,0,0,-0.8,0,792)"
             sodipodi:nodetypes="csssssc" />
        </g>
        <g
           transform="translate(555.13042,433.8059)"
           id="g2857">
          <path
             inkscape:connector-curvature="0"
             id="path2859"
             style="fill:#298daf;fill-opacity:1;fill-rule:nonzero;stroke:none"
             d="m 0,0 c 0,0 49.25,31.25 44.75,75.5 -2.212,21.747 -18.276,36.548 -38.516,44.227 -21.87,8.297 -34.062,8.014 -51.734,8.523 -34.75,1 22.25,-130.75 22.25,-130.75 z" />
        </g>
        <g
           transform="translate(97.860244,322.6715)"
           id="g2861">
          <path
             inkscape:connector-curvature="0"
             id="path2863"
             style="fill:#298daf;fill-opacity:1;fill-rule:nonzero;stroke:none"
             d="m 0,0 c 0,0 -69.639,-4.52 -76.5,44 -3.5,24.75 -3.5,42.75 15.5,59.5 15.817,13.944 33.224,28.616 45.5,58 C 8,217.75 0,0 0,0" />
        </g>
      </g>
      <g
         id="g3717"
         transform="translate(273.40234,-207.56864)">
        <g
           transform="translate(-84.848606,679.98406)"
           id="g2869">
          <path
             inkscape:connector-curvature="0"
             id="path2871"
             style="fill:#ffffff;fill-opacity:1;fill-rule:nonzero;stroke:none"
             d="M 0,0 C 0,87.813 71.187,159 159,159 246.813,159 318,87.813 318,0 318,-87.813 246.813,-159 159,-159 71.187,-159 0,-87.813 0,0" />
        </g>
        <g
           transform="translate(32.151394,690.98406)"
           id="g2873">
          <path
             inkscape:connector-curvature="0"
             id="path2875"
             style="fill:#298daf;fill-opacity:1;fill-rule:nonzero;stroke:none"
             d="M 0,0 C 0,23.196 18.805,42 42,42 65.195,42 84,23.196 84,0 84,-23.196 65.195,-42 42,-42 18.805,-42 0,-23.196 0,0" />
        </g>
        <g
           transform="translate(67.686574,631.40546)"
           id="g2877">
          <path
             inkscape:connector-curvature="0"
             id="path2879"
             style="fill:#298daf;fill-opacity:1;fill-rule:nonzero;stroke:none"
             d="M 0,0 C 0,0 59.648,-74.923 63.271,-73.355 67.493,-71.525 47.996,20.977 47.996,20.977 47.996,20.977 29.345,4.648 0,0" />
        </g>
        <g
           transform="translate(113.89647,730.73506)"
           id="g2881">
          <path
             inkscape:connector-curvature="0"
             id="path2883"
             style="fill:#298daf;fill-opacity:1;fill-rule:nonzero;stroke:none"
             d="m 0,0 c 0,0 -3.5,44.491 -14.011,48.377 -8.711,3.22 -35.993,-32.779 -35.993,-32.779 0,0 24.79,0.116 50.004,-15.598" />
        </g>
      </g>
    </g>
    <text
       xml:space="preserve"
       style="font-style:normal;font-weight:normal;font-size:10.58333302px;line-height:1.25;font-family:sans-serif;letter-spacing:0px;word-spacing:0px;fill:#000000;fill-opacity:1;stroke:none;stroke-width:0.26458332"
       x="79.830025"
       y="217.35367"
       id="text101"><tspan
         sodipodi:role="line"
         id="tspan99"
         x="79.830025"
         y="217.35367"
         style="font-style:normal;font-variant:normal;font-weight:normal;font-stretch:normal;font-size:22.57777786px;font-family:'Archivo Narrow';-inkscape-font-specification:'Archivo Narrow';fill:#cb4b16;fill-opacity:1;stroke-width:0.26458332">The Zeitgeist</tspan><tspan
         sodipodi:role="line"
         x="79.830025"
         y="245.5759"
         style="font-style:normal;font-variant:normal;font-weight:normal;font-stretch:normal;font-size:22.57777786px;font-family:'Archivo Narrow';-inkscape-font-specification:'Archivo Narrow';fill:#cb4b16;fill-opacity:1;stroke-width:0.26458332"
         id="tspan103">Project</tspan></text>
  </g>
</svg>
